Benjamin Farias Data Analysis Portfolio - CDC Data Exercise
…
# Mean of estimate
mean(data$Estimate)

[1] 23.28765

# Standard deviation of estimate
sd(data$Estimate)

[1] 12.02931

# Percentage of state
data %>% group_by(Geographic.Name) %>% summarise(percent = 100 * n() / 7168)

# A tibble: 54 × 2
   Geographic.Name      percent
   <chr>                  <dbl>
 1 Alabama                 2.19
 2 Alaska                  1.80
 3 Arizona                 2.13
 4 Arkansas                1.86
 5 California              2.13
 6 Colorado                2.08
 7 Connecticut             1.02
 8 Delaware                2.02
 9 District of Columbia    2.19
10 Florida                 2.13
# ℹ 44 more rows

# Percentage of weeks
data %>% group_by(Week_ending) %>% summarise(percent = 100 * n() / 7168)

# A tibble: 33 × 2
   Week_ending            percent
   <chr>                    <dbl>
 1 01/06/2024 12:00:00 AM    3.57
 2 01/13/2024 12:00:00 AM    3.57
 3 01/20/2024 12:00:00 AM    3.29
 4 01/27/2024 12:00:00 AM    3.29
 5 02/03/2024 12:00:00 AM    3.52
 6 02/10/2024 12:00:00 AM    3.07
 7 02/17/2024 12:00:00 AM    3.07
 8 02/24/2024 12:00:00 AM    3.12
 9 03/02/2024 12:00:00 AM    3.57
10 03/09/2024 12:00:00 AM    3.18
# ℹ 23 more rows
…
# Mean of estimate
mean(newdata$Estimate)

[1] 23.11207

# Standard deviation of estimate
sd(newdata$Estimate)

[1] 11.94228

# Percentage of state
newdata %>% group_by(Geographic.Name) %>% summarise(percent = 100 * n() / 7168)

# A tibble: 54 × 2
   Geographic.Name      percent
   <fct>                  <dbl>
 1 Alabama                 2.12
 2 Alaska                  1.93
 3 Arizona                 1.95
 4 Arkansas                2.30
 5 California              2.08
 6 Colorado                2.02
 7 Connecticut             1.13
 8 Delaware                2.04
 9 District of Columbia    2.08
10 Florida                 2.25
# ℹ 44 more rows
…
